cpp/data/test/engine/vcd_parser/test.vcd
$date
	Thu Nov 10 02:40:20 2016
$end
$version
	ModelSim Version 10.4d
$end
$timescale
	1ps
$end

$scope module test $end
$var wire 1 ! o $end
$var wire 1 " clk $end
$upscope $end
$enddefinitions $end
#0
$dumpvars
0!
1"
$end
#4
0"
1!
#5
1"
0!
#9
0"
1!
#10
1"
0!
#14
0"
1!
#15
1"
0!
#19
0"
1!
#20
1"
0!
#24
0"
1!
#25
1"
0!
#29
0"
1!
#30
1"
0!
#34
0"
1!
#35
1"
0!
#39
0"
1!
#40
1"
0!
#44
0"
1!
#45
1"
0!
#49
0"
1!
#50
1"
0!
#54
0"
1!
#55
1"
0!
#59
0"
1!
#60
1"
0!
#64
0"
1!
#65
1"
0!
#69
0"
1!
#70
1"
0!
#74
0"
1!
#75
1"
0!
#79
0"
1!
#80
1"
0!
#84
0"
1!
#85
1"
0!
#89
0"
1!
#90
1"
0!
#94
0"
1!
#95
1"
0!
#99
0"
1!
#100
1"
0!
